{
  "dbConnectionString": "mongodb://ht-user:+1000Annonser@hemtorg-db-cluster-shard-00-00-umicq.mongodb.net:27017,hemtorg-db-cluster-shard-00-01-umicq.mongodb.net:27017,hemtorg-db-cluster-shard-00-02-umicq.mongodb.net:27017/propertydb?ssl=true&replicaSet=hemtorg-db-cluster-shard-0&authSource=admin",
  "dbName" : "propertydb",
  "dbConnectionStringLoc": "mongodb://localhost:27017/hemtorg",
  "useMemoryDB": false
}